#FIG 3.2  Produced by xfig version 3.2.5-alpha4
Landscape
Center
Inches
Letter  
100.00
Single
-2
1200 2
0 32 #87ceff
2 2 0 1 0 7 50 -1 -1 0.000 0 0 -1 0 0 5
	 1725 900 3900 900 3900 2850 1725 2850 1725 900
3 0 0 1 0 7 50 -1 -1 0.000 0 0 0 10
	 1875 1350 2175 1050 2700 1125 3150 1500 2925 2025 2400 2100
	 2700 1575 2025 1800 2100 2250 1875 1350
	 0.000 1.000 1.000 1.000 1.000 1.000 1.000 1.000
	 1.000 0.000
3 0 4 1 25 10 50 -1 20 3.000 0 0 0 10
	 4425 1350 4725 1050 5250 1125 5700 1500 5475 2025 4950 2100
	 5250 1575 4575 1800 4650 2250 4425 1350
	 0.000 1.000 1.000 1.000 1.000 1.000 1.000 1.000
	 1.000 0.000
4 0 0 50 -1 0 10 0.0000 6 150 3525 1425 75 Fig2ps is able to treat correctly all kind of drawings that \001
4 0 0 50 -1 0 10 0.0000 6 135 3675 1425 270 you can make with Xfig and also to format text nicely using\001
4 0 0 50 -1 0 10 0.0000 6 135 1275 1425 660 including you own...\001
4 0 0 50 -1 0 10 0.0000 6 150 1380 1425 3225 You can use equations:\001
4 0 0 50 -1 0 10 0.0000 6 165 3420 1725 3675 $ f(x) = \\int_0^\\infty \\frac{\\sin(xu)}{u} \\mathrm{d}u $\001
4 0 13 50 -1 0 10 0.0000 6 105 570 1425 3975 Colors...\001
4 0 11 50 -1 0 10 0.0000 6 150 930 1425 4200 Simply enjoy !!\001
4 0 32 50 -1 0 10 0.0000 6 150 930 2700 4200 Simply enjoy !!\001
4 0 0 50 -1 0 10 0.0000 6 150 3630 1425 465 \\LaTeX{} with any \\texttt{package} you would want to use\001
